%YAML 1.1
%TAG !u! tag:unity3d.com,2011:
--- !u!114 &11400000
MonoBehaviour:
  m_ObjectHideFlags: 0
  m_CorrespondingSourceObject: {fileID: 0}
  m_PrefabInstance: {fileID: 0}
  m_PrefabAsset: {fileID: 0}
  m_GameObject: {fileID: 0}
  m_Enabled: 1
  m_EditorHideFlags: 0
  m_Script: {fileID: 11500000, guid: aba05d3c74c75d145b30afdfffbe1651, type: 3}
  m_Name: looseDataStartGame
  m_EditorClassIdentifier: 
  sentences:
  - "Apr\xE8s s'\xEAtre fait d\xE9rober son repas  par des fourmis alors qu'il s'en
    allait pique-niquer avec sa copine, Niels devint fou de rage."
  - "Il entreprit, alors, de faire comprendre aux fautives qu'elles s'en \xE9taient
    prises au mauvais sandwich.."
  - "\xC9limine les fourmis dans le bon ordre !"
  typingSpeed:
  - 0.05
  - 0.05
  - 0.05
  waitingSpeed:
  - 1
  - 1.5
  - 1
  index: 1
